[
    {
      "name": "naresh",
      "email": "naresh@gmail.com",
      "password": "123456"       
    },
    {
      "name": "Sai",
      "email": "sai@gmail.com",
      "password": "haihai"       
    },
    {
      "name": "Deepthi",
      "email": "deepthi@gmail.com",
      "password": "01234"       
    }
  ]
